From Cacao Farms to Chocolate Bars – Blogs of Stuff I am Interested In
…
In this visualization we will dive into chocolate ratings varying depending on the country where the cacao beans originated. The map shows average rating of chocolate bars associated to the beans from each country. Because I do consider that we should credit the country where the beans are from.

bean_rates = chocolate|>
  filter(!is.na(country_of_bean_origin))|>
  group_by(country_of_bean_origin)|>
  summarise(
    averageRating = mean(rating),
    n=n())|>
  filter(n>=5) |>
  arrange(desc(n))

bean_rates

# A tibble: 41 × 3
   country_of_bean_origin averageRating     n
   <chr>                          <dbl> <int>
 1 Venezuela                       3.23   253
 2 Peru                            3.20   244
 3 Dominican Republic              3.22   226
 4 Ecuador                         3.16   219
 5 Madagascar                      3.27   177
 6 Blend                           3.04   156
 7 Nicaragua                       3.26   100
 8 Bolivia                         3.18    80
 9 Colombia                        3.20    79
10 Tanzania                        3.23    79
# ℹ 31 more rows
…
